<svg xmlns="http://www.w3.org/2000/svg" width="1617.722" height="490.469" viewBox="0 0 1617.722 490.469">
  <defs>
    <style>
      .cls-1 {
        fill: #feffff;
        fill-rule: evenodd;
      }
    </style>
  </defs>
  <path id="nimal" class="cls-1" d="M251.55,731.122V492.5a120.68,120.68,0,0,1,27.77-19.052,69.7,69.7,0,0,1,31-7.1q21.956,0,33.259,13.723t11.3,38.264V731.122h100.1V518.331a167.467,167.467,0,0,0-7.427-50.857q-7.432-23.407-21.957-40.363a100.9,100.9,0,0,0-35.681-26.478q-21.151-9.52-48.6-9.525a136.99,136.99,0,0,0-29.869,3.067,131.448,131.448,0,0,0-25.509,8.4,117.131,117.131,0,0,0-22.118,13.077,243.431,243.431,0,0,0-20.02,16.791l-5.812-19.374q-2.589-8.392-8.88-12.593t-15.661-4.2h-62V731.122h100.1Zm290.6-334.848V731.122h100.1V396.274h-100.1Zm106.88-114.629a60.674,60.674,0,0,0-32.774-31.322,62.544,62.544,0,0,0-23.733-4.52,58.1,58.1,0,0,0-22.926,4.52,60.6,60.6,0,0,0-18.89,12.593,59.467,59.467,0,0,0-12.916,18.729,56.329,56.329,0,0,0-4.682,22.926,54.407,54.407,0,0,0,4.682,22.441,58.022,58.022,0,0,0,12.916,18.4,64.3,64.3,0,0,0,18.89,12.594,56.312,56.312,0,0,0,22.926,4.682,60.6,60.6,0,0,0,23.733-4.682,64.719,64.719,0,0,0,19.535-12.594,59.054,59.054,0,0,0,13.239-18.4,52.889,52.889,0,0,0,4.844-22.441A54.748,54.748,0,0,0,649.032,281.645ZM835.984,731.122V488.947a93.373,93.373,0,0,1,22.764-16.468,56.075,56.075,0,0,1,25.671-6.135q21.954,0,33.259,11.624t11.3,40.363V731.122h100.1V518.331q0-25.187,13.4-38.587t33.74-13.4q44.565,0,44.56,51.987V731.122h100.1V518.331q0-30.03-7.75-53.763t-22.76-40.04a97.164,97.164,0,0,0-37.3-24.863q-22.275-8.553-51.02-8.557a154.242,154.242,0,0,0-31.16,3.229,127,127,0,0,0-29.7,10.01,110.079,110.079,0,0,0-26.16,17.759,98.96,98.96,0,0,0-20.5,26.478q-10.338-26.156-30.191-41.815t-50.211-15.661a105.91,105.91,0,0,0-49.243,11.463,111.928,111.928,0,0,0-19.535,12.593,185.391,185.391,0,0,0-17.437,15.983l-5.489-18.082q-2.588-8.392-8.88-12.593t-15.66-4.2h-62V731.122h100.1Zm745.9,0V521.882q0-28.735-9.04-52.955a119.9,119.9,0,0,0-26-41.816,117.862,117.862,0,0,0-41.33-27.446q-24.375-9.846-54.73-9.849-42.3,0-79.27,13.078a203.615,203.615,0,0,0-67.33,39.878l18.09,31.321a37.063,37.063,0,0,0,11.46,12.432q7.26,5.01,17.6,5,11.625,0,20.02-3.875t17.27-8.718a130.9,130.9,0,0,1,20.18-8.719q11.31-3.875,29.07-3.874,22.275,0,34.38,13.2t12.11,42.855v14.339q-57.48,0-95.25,10.368t-60.06,25.751q-22.29,15.395-31.32,34.177t-9.04,36.609q0,22.674,7.1,40a77.556,77.556,0,0,0,20.18,29,86.808,86.808,0,0,0,31.81,17.653q18.72,5.994,41.65,5.994a163.222,163.222,0,0,0,31.16-2.744,118.939,118.939,0,0,0,26.48-8.4,153.444,153.444,0,0,0,24.05-13.723q11.625-8.067,24.22-18.728l7.11,18.4q4.83,12.276,12.1,16.145t21.48,3.875h45.85Zm-188.25-68.031q-9.375-7-9.37-24.268a31.859,31.859,0,0,1,4.36-16.281q4.365-7.492,15.66-13.355,11.31-5.865,30.68-9.773t49.4-3.91v45.852q-14.85,15.181-29.38,21.957t-33.91,6.781Q1403,670.094,1393.63,663.091ZM1669.05,247.74V731.122h100.1V247.74h-100.1Z" transform="translate(-151.438 -245.812)"/>
</svg>
